﻿{
  // ACTION REQUIRED: This file was automatically added to your project, but it
  // will not take effect until additional steps are taken to enable it. See the
  // following page for additional information:
  //
  // https://github.com/DotNetAnalyzers/StyleCopAnalyzers/blob/master/documentation/EnableConfiguration.md

  "$schema": "https://raw.githubusercontent.com/DotNetAnalyzers/StyleCopAnalyzers/master/StyleCop.Analyzers/StyleCop.Analyzers/Settings/stylecop.schema.json",
  "settings": {
    "documentationRules": {
      "companyName": "Portfolio Website",
      "copyrightText": "Copyright (c) Portfolio Website. All rights reserved.\nLicensed under the {licenseName}. See the {licenseFile} file in the project root for full license information.",
      "variables": {
        "licenseName": "Apache License, Version 2.0",
        "licenseFile": "LICENSE"
      }
    }
  }
}
